<?xml version="1.0" encoding="UTF-8"?>
<svg width="24px" height="70px" viewBox="0 0 24 70" version="1.1" xmlns="http://www.w3.org/2000/svg" xmlns:xlink="http://www.w3.org/1999/xlink">
    <!-- Generator: sketchtool 52.4 (67378) - http://www.bohemiancoding.com/sketch -->
    <title>8B052FFE-4C9A-4DA0-B678-46321C9201FF</title>
    <desc>Created with sketchtool.</desc>
    <g id="Page-1" stroke="none" stroke-width="1" fill="none" fill-rule="evenodd">
        <g id="3.2-Home-1920" transform="translate(-695.000000, -3884.000000)">
            <g id="Four" transform="translate(408.000000, 3318.000000)">
                <g id="Group-13" transform="translate(287.000000, 566.000000)">
                    <rect id="Rectangle" fill="#555557" x="11" y="0" width="1" height="70"></rect>
                    <path d="M20.7057285,44.7730776 C23.5336273,43.1405798 25.4298434,40.4203583 26.3232003,37.1845632 C23.0737174,36.3395699 19.7694833,36.6215385 16.9415845,38.2531239 C14.1145982,39.8865343 12.2165571,42.6076682 11.3232003,45.8443758 C14.5735957,46.6893692 17.8787423,46.4055755 20.7057285,44.7730776" id="Fill-61-Copy-7" fill="#90A44F" opacity="0.896795743" transform="translate(18.823200, 41.514176) rotate(-25.000000) translate(-18.823200, -41.514176) "></path>
                    <path d="M6.67619681,19.7589016 C9.50409558,18.1264037 11.4003117,15.4061823 12.2936685,12.1703871 C9.04418561,11.3253938 5.73995152,11.6073624 2.91205275,13.2389478 C0.0850664998,14.8723582 -1.81297462,17.5934921 -2.70633148,20.8301998 C0.544063945,21.6751931 3.84921056,21.3913994 6.67619681,19.7589016" id="Fill-61-Copy-8" fill="#90A44F" opacity="0.896795743" transform="translate(4.793669, 16.500000) rotate(90.000000) translate(-4.793669, -16.500000) "></path>
                </g>
            </g>
        </g>
    </g>
</svg>