<?xml version="1.0" encoding="UTF-8"?>
<svg width="18px" height="12px" viewBox="0 0 18 12" version="1.1" xmlns="http://www.w3.org/2000/svg" xmlns:xlink="http://www.w3.org/1999/xlink">
    <!-- Generator: sketchtool 52.4 (67378) - http://www.bohemiancoding.com/sketch -->
    <title>32AD8272-7CC0-4021-81C4-129EE9CACC1B</title>
    <desc>Created with sketchtool.</desc>
    <g id="Page-1" stroke="none" stroke-width="1" fill="none" fill-rule="evenodd">
        <g id="2.2-Home" transform="translate(-1073.000000, -10402.000000)" fill="#FFFFFF" fill-rule="nonzero">
            <g id="Group-25">
                <g id="Group-22" transform="translate(80.000000, 940.000000)">
                    <g id="Group-24" transform="translate(0.000000, 6253.000000)">
                        <g id="Group-11" transform="translate(0.000000, 2829.000000)">
                            <g id="Footer" transform="translate(0.000000, 338.000000)">
                                <g id="Group-15" transform="translate(40.000000, 42.000000)">
                                    <g id="social" transform="translate(790.000000, 0.000000)">
                                        <g id="behance-logo-(2)" transform="translate(163.000000, 0.333333)">
                                            <path d="M15.9431045,1.56462687 L11.5195858,1.56462687 L11.5195858,0.465858209 L15.9434739,0.465858209 L15.9434739,1.56462687 L15.9431045,1.56462687 Z M8.57474627,6.07031716 C8.86017164,6.51241045 9.00280224,7.04919403 9.00280224,7.67939552 C9.00280224,8.33110448 8.84198881,8.91574627 8.5148209,9.43217164 C8.30668284,9.77391045 8.04826493,10.0625784 7.73776119,10.2949739 C7.3880597,10.5637351 6.97404104,10.7480261 6.49808582,10.8464925 C6.02061194,10.9451231 5.50381716,10.9949515 4.94712687,10.9949515 L0,10.9949515 L0,0.0101380597 L5.30503731,0.0101380597 C6.64223507,0.031891791 7.59024627,0.419313433 8.15005597,1.18016045 C8.48596642,1.64679851 8.65240299,2.20673134 8.65240299,2.85757836 C8.65240299,3.52915299 8.48395522,4.06651119 8.14476119,4.47478358 C7.95607836,4.7036903 7.67734328,4.91191045 7.30835075,5.09985448 C7.86725746,5.30446269 8.29133209,5.62666418 8.57474627,6.07031716 Z M2.53336567,4.34089552 L4.85781343,4.34089552 C5.33549254,4.34089552 5.72164179,4.25010448 6.01905224,4.06860448 C6.31625746,3.88739179 6.46455224,3.56527239 6.46455224,3.10277985 C6.46455224,2.59181343 6.26819403,2.25266045 5.87453358,2.08942537 C5.53616045,1.97601866 5.10322015,1.91761194 4.57788806,1.91761194 L2.53336567,1.91761194 L2.53336567,4.34089552 Z M6.6883694,7.52248134 C6.6883694,6.95187687 6.45515299,6.55739552 5.98966418,6.34572761 C5.72935821,6.22542537 5.36208955,6.1639403 4.89118284,6.15954851 L2.53336567,6.15954851 L2.53336567,9.08694403 L4.85469403,9.08694403 C5.33159328,9.08694403 5.70070896,9.02451493 5.96708955,8.89427985 C6.44747761,8.65482463 6.6883694,8.19910448 6.6883694,7.52248134 Z M17.5843619,5.73543284 C17.6378022,6.0948209 17.6619776,6.61625373 17.6521679,7.29780224 L11.9232201,7.29780224 C11.9548246,8.0885709 12.2278134,8.64156716 12.7455522,8.95802239 C13.0577799,9.15647388 13.4363358,9.2533806 13.8796194,9.2533806 C14.3470373,9.2533806 14.7280149,9.13521269 15.0212799,8.8923097 C15.1810672,8.76355224 15.3220149,8.58180597 15.4438769,8.35248881 L17.5437276,8.35248881 C17.4887276,8.81953731 17.2358918,9.29323507 16.7815261,9.77460821 C16.0775672,10.5397239 15.0902761,10.9233694 13.8223209,10.9233694 C12.7748582,10.9233694 11.8517201,10.5998134 11.050444,9.95504104 C10.2518358,9.30801119 9.85074627,8.25866045 9.85074627,6.80300746 C9.85074627,5.43798134 10.2108321,4.39318657 10.9334254,3.66595522 C11.6586866,2.9373694 12.5946716,2.57473881 13.7483993,2.57473881 C14.4322463,2.57473881 15.0486978,2.69697015 15.5986567,2.94270522 C16.1468918,3.18868657 16.5999851,3.5758209 16.9568284,4.10788433 C17.2797687,4.57645149 17.4874552,5.11824254 17.5843619,5.73543284 Z M15.5174701,5.94041045 C15.4789701,5.39361194 15.296403,4.97975746 14.9676754,4.69691791 C14.6416567,4.41329851 14.2343694,4.27091418 13.7483993,4.27091418 C13.2194963,4.27091418 12.8111007,4.42310821 12.5209142,4.72224254 C12.2287575,5.02076119 12.0469701,5.42661194 11.9724739,5.94045149 L15.5174701,5.94045149 L15.5174701,5.94041045 Z" id="Behance"></path>
                                        </g>
                                    </g>
                                </g>
                            </g>
                        </g>
                    </g>
                </g>
            </g>
        </g>
    </g>
</svg>