<?xml version="1.0" encoding="UTF-8"?>
<svg width="15px" height="12px" viewBox="0 0 15 12" version="1.1" xmlns="http://www.w3.org/2000/svg" xmlns:xlink="http://www.w3.org/1999/xlink">
    <!-- Generator: sketchtool 52.4 (67378) - http://www.bohemiancoding.com/sketch -->
    <title>B0E3D829-76CB-46FB-951A-09D6CBFB289C</title>
    <desc>Created with sketchtool.</desc>
    <g id="Page-1" stroke="none" stroke-width="1" fill="none" fill-rule="evenodd">
        <g id="2.2-Home" transform="translate(-945.000000, -10402.000000)" fill="#FFFFFF" fill-rule="nonzero">
            <g id="Group-25">
                <g id="Group-22" transform="translate(80.000000, 940.000000)">
                    <g id="Group-24" transform="translate(0.000000, 6253.000000)">
                        <g id="Group-11" transform="translate(0.000000, 2829.000000)">
                            <g id="Footer" transform="translate(0.000000, 338.000000)">
                                <g id="Group-15" transform="translate(40.000000, 42.000000)">
                                    <g id="social" transform="translate(790.000000, 0.000000)">
                                        <g id="telegram" transform="translate(35.413843, -0.000000)">
                                            <path d="M0.24270229,5.75473282 L3.40877863,6.93641221 L4.63424427,10.8774962 C4.71265649,11.1299084 5.02131298,11.2232061 5.22618321,11.0557099 L6.99100763,9.61699237 C7.176,9.46625954 7.43949618,9.45874809 7.63282443,9.59908397 L10.8159389,11.9100916 C11.0350992,12.0693893 11.3455878,11.9492977 11.4005496,11.6844733 L13.7323511,0.468091603 C13.7923511,0.17880916 13.5081069,-0.062519084 13.2326565,0.0440152672 L0.238992366,5.05658015 C-0.0816641221,5.18024427 -0.078870229,5.63422901 0.24270229,5.75473282 Z M4.43674809,6.30737405 L10.6244427,2.49636641 C10.7356489,2.42807634 10.8500611,2.57844275 10.7545649,2.6670229 L5.64792366,7.41389313 C5.46842748,7.5809771 5.35264122,7.80458015 5.31984733,8.04728244 L5.14589313,9.33641221 C5.12285496,9.50853435 4.8810687,9.52561832 4.83357252,9.35903817 L4.16454962,7.00827481 C4.08792366,6.74015267 4.19958779,6.45375573 4.43674809,6.30737405 Z" id="XMLID_497_"></path>
                                        </g>
                                    </g>
                                </g>
                            </g>
                        </g>
                    </g>
                </g>
            </g>
        </g>
    </g>
</svg>