<svg xmlns="http://www.w3.org/2000/svg" width="22" height="21" viewBox="0 0 22 21">
    <path fill="#000" fill-rule="evenodd" d="M11.996 12.893v-1.538h2.961v.407c0 1.655-.008 3.31.006 4.964.003.373.04.756.134 1.116.26.995 1.094 1.477 2.102 1.253.985-.22 1.837-1.07 1.902-2.13.083-1.338.02-2.686.02-4.07h-1.497v-1.54h3.153v7.487H22v1.506h-.976c-.388 0-.776-.013-1.163.005-.24.012-.316-.085-.338-.309-.034-.35-.1-.699-.16-1.112-.08.1-.134.159-.177.224-.769 1.166-1.92 1.651-3.279 1.38-1.33-.267-2.215-1.157-2.468-2.516a6.096 6.096 0 0 1-.092-1.054c-.011-1.22-.004-2.441-.004-3.662v-.411h-1.347zM19.614 3.5c0-.445.015-.876-.01-1.306-.006-.119-.099-.284-.2-.338-1.214-.64-3.235-.668-4.295 1.088-.932 1.546-.517 3.6.909 4.538 1.23.809 2.921.59 3.973-.514l.244-.258 1.208.92c-.612.806-1.364 1.374-2.32 1.668-2.574.79-5.326-.69-6.031-3.247-.722-2.62.827-5.297 3.475-5.907 1.581-.364 3.06-.04 4.368.94.12.09.21.293.216.447.024.648.01 1.296.01 1.969h-1.547zM7.597 6.948l.758-2.185c.482-1.4.971-2.798 1.436-4.204.09-.269.213-.343.485-.336.75.02 1.503.007 2.278.007v1.54c-.354 0-.703.02-1.049-.005-.307-.024-.452.07-.565.378-.844 2.31-1.718 4.61-2.569 6.92-.093.252-.2.37-.483.343-.36-.034-.814.105-1.063-.068-.248-.172-.3-.635-.423-.976-.747-2.08-1.496-4.159-2.228-6.244-.096-.275-.23-.37-.513-.353-.384.024-.772.007-1.181.007V.23h.32c.707 0 1.414.017 2.12-.008.299-.011.409.1.498.367.675 2.007 1.367 4.01 2.053 6.014.03.085.063.17.126.344zm2.45 11.935v1.443h-6.91v-1.453h1.44v-6.127c-.387 0-.781-.01-1.175.004-.218.007-.31-.054-.3-.287.017-.361.005-.723.005-1.106H5.92l.12 1.748c1.012-1.677 2.505-1.955 4.209-1.747v2.69h-1.5V12.74c-.943-.054-1.89.576-2.29 1.57-.15.371-.232.79-.247 1.19-.034.992-.01 1.985-.01 2.978v.404h3.844zm-8.519 1.48H0v-1.538h1.528v1.537z" opacity=".4"/>
</svg>
