<?xml version="1.0" encoding="UTF-8"?>
<svg width="18px" height="11px" viewBox="0 0 18 11" version="1.1" xmlns="http://www.w3.org/2000/svg" xmlns:xlink="http://www.w3.org/1999/xlink">
    <!-- Generator: sketchtool 52.4 (67378) - http://www.bohemiancoding.com/sketch -->
    <title>372FB5C1-4FC3-4CCA-9711-2245A63D66B9</title>
    <desc>Created with sketchtool.</desc>
    <g id="Page-1" stroke="none" stroke-width="1" fill="none" fill-rule="evenodd">
        <g id="2.2-Home" transform="translate(-987.000000, -10403.000000)" fill="#FFFFFF" fill-rule="nonzero">
            <g id="Group-25">
                <g id="Group-22" transform="translate(80.000000, 940.000000)">
                    <g id="Group-24" transform="translate(0.000000, 6253.000000)">
                        <g id="Group-11" transform="translate(0.000000, 2829.000000)">
                            <g id="Footer" transform="translate(0.000000, 338.000000)">
                                <g id="Group-15" transform="translate(40.000000, 42.000000)">
                                    <g id="social" transform="translate(790.000000, 0.000000)">
                                        <g id="vk" transform="translate(77.042562, 0.666667)">
                                            <path d="M16.0861543,7.25976341 C14.6482858,5.89855777 14.9178861,6.1707989 16.625355,3.81137579 C17.6138897,2.45017015 18.0632236,1.54269972 17.9733568,1.17971155 C17.88349,0.816723384 17.0746889,0.907470426 17.0746889,0.907470426 L14.558419,0.907470426 C14.558419,0.907470426 14.3786854,0.907470426 14.1989519,0.998217469 C14.0192183,1.08896451 13.9293515,1.2704586 13.9293515,1.2704586 C13.9293515,1.2704586 13.4800176,2.35942311 13.0306837,3.26689353 C11.9522823,5.26332847 11.4130816,5.35407551 11.233348,5.26332847 C10.7840141,4.99108734 10.8738809,4.08361692 10.8738809,3.53913466 C10.8738809,1.63344677 11.1434812,0.907470426 10.3346802,0.635229298 C10.0650798,0.544482256 9.79547945,0.453735213 9.07654518,0.453735213 C8.17787734,0.453735213 7.36907628,0.453735213 6.91974236,0.725976341 C6.7400088,0.816723384 6.47040844,1.17971155 6.65014201,1.17971155 C6.82987558,1.17971155 7.18934272,1.2704586 7.45894307,1.54269972 C7.72854342,1.90568789 7.72854342,2.72241128 7.72854342,2.72241128 C7.72854342,2.72241128 7.72854342,4.99108734 7.2792095,5.26332847 C6.91974236,5.5355696 6.47040844,5.08183439 5.48187382,3.26689353 C4.94267312,2.35942311 4.4933392,1.36120564 4.4933392,1.36120564 C4.4933392,1.36120564 4.40347241,1.17971155 4.31360563,1.08896451 C4.13387206,0.907470426 3.95413849,0.907470426 3.95413849,0.907470426 L1.43786854,0.907470426 C1.43786854,0.907470426 1.07840141,0.907470426 0.898667839,1.08896451 C0.808801055,1.2704586 0.898667839,1.54269972 0.898667839,1.54269972 C0.898667839,1.54269972 2.7858703,5.98930481 4.94267312,8.34872792 C6.91974236,10.4359099 9.16641196,10.3451629 9.16641196,10.3451629 L10.1549466,10.3451629 C10.1549466,10.3451629 10.5144137,10.3451629 10.6042805,10.1636688 C10.7840141,9.98217469 10.7840141,9.70993356 10.7840141,9.70993356 C10.7840141,9.70993356 10.7840141,8.34872792 11.4130816,8.16723384 C12.042149,7.98573975 12.8509501,9.43769243 13.7496179,10.0729217 C14.4685522,10.5266569 14.8280193,10.4359099 14.8280193,10.4359099 L17.1645557,10.4359099 C17.1645557,10.4359099 18.3328239,10.3451629 17.7936232,9.43769243 C17.7936232,9.1654513 17.4341561,8.62096905 16.0861543,7.25976341 Z" id="Shape"></path>
                                        </g>
                                    </g>
                                </g>
                            </g>
                        </g>
                    </g>
                </g>
            </g>
        </g>
    </g>
</svg>