<?xml version="1.0" encoding="UTF-8"?>
<svg class="PatternSvg" width="283px" height="582px" viewBox="0 0 283 582" version="1.1" xmlns="http://www.w3.org/2000/svg" xmlns:xlink="http://www.w3.org/1999/xlink">
    <defs>
        <polygon id="path-1" points="0 0 283 0 283 420.1785 0 584"></polygon>
    </defs>
    <g id="Page-1" stroke="none" stroke-width="1" fill="none" fill-rule="evenodd" opacity="0.89622962">
        <g id="3.2-Home-1920" transform="translate(-559.000000, -940.000000)">
            <g id="First" transform="translate(545.000000, 940.000000)">
                <g id="Pattern_1-02-01" transform="translate(14.000000, 0.000000)">
                    <mask id="mask-2" fill="white">
                        <use xlink:href="#path-1"></use>
                    </mask>
                    <g id="Mask"></g>
                    <g mask="url(#mask-2)" fill-rule="nonzero" id="Shape">
                        <g transform="translate(-187.000000, -128.000000)">
                            <path d="M422.068789,141.596722 C421.998431,137.39191 420.261288,133.387952 417.240677,130.468355 C411.105293,136.202221 410.769175,145.833898 416.489869,151.983199 C416.733186,152.240945 416.983456,152.491725 417.240677,152.735539 C420.262252,149.816613 421.999577,145.812233 422.068789,141.607172" fill="#EFEFEF"></path>
                            <path d="M327.946667,154.647738 C324.345894,156.812113 321.753121,160.323823 320.740996,164.407264 C324.594927,165.586492 328.758505,165.183308 332.315768,163.286409 C335.873031,161.389511 338.532578,158.154286 339.709326,154.292466 C339.813604,153.958092 339.90398,153.609787 339.980451,153.247549 C335.942876,152.09338 331.612876,152.597196 327.946667,154.647738" fill="#EFEFEF"></path>
                            <path d="M361.941584,270.926118 C358.266395,268.897751 353.937251,268.416589 349.907801,269.588624 C351.800081,277.765327 359.93981,282.864793 368.104466,280.98867 C368.445111,280.912042 368.792707,280.821483 369.147255,280.716991 C368.13513,276.633551 365.542357,273.12184 361.941584,270.957465" fill="#EFEFEF"></path>
                            <path d="M307.622713,15.8827406 L307.622713,118.190578 L307.622713,15.8827406 Z M307.622713,305.115807 L307.622713,355.376321 L315.360206,355.376321 L315.360206,349.629277 L378.793052,312.994482 L384.507535,316.29642 L384.507535,355.428567 L392.276312,355.428567 L392.276312,320.789564 L413.382358,333.004645 L413.382358,358.406581 L421.119852,358.406581 L421.119852,237.332031 L480.694379,271.814297 L480.694379,307.34148 L449.984247,289.577889 L449.984247,270.361862 L442.246754,270.361862 L442.246754,294.039685 L457.607034,302.93193 L434.5614,316.265072 L438.430147,322.98389 L465.271532,307.414624 L480.621384,316.29642 L480.621384,334.060011 L443.706658,355.418118 L459.223356,355.418118 L480.652667,343.014951 L480.652667,355.418118 L488.390161,355.418118 L488.390161,338.553155 L528.69395,315.220155 L528.69395,355.439016 L536.431443,355.439016 L536.431443,310.737461 L580.635263,285.157889 L615.266281,305.188951 L615.266281,355.428567 L622.993346,355.428567 L622.993346,0 L615.266281,0 L615.266281,6.94869902 L603.31592,0 L587.840934,0 L615.339276,15.903639 L615.339276,118.211477 L569.216725,91.534742 L594.243657,77.0835378 L594.243657,19.2055771 L586.506164,19.2055771 L586.506164,57.0002303 L563.46053,43.6670875 L559.591784,50.3859048 L586.506164,65.9551702 L586.506164,72.6008433 L536.494011,101.52415 L536.494011,21.452149 L573.533871,0 L558.090168,0 L536.494011,12.5390057 L536.494011,0 L528.756517,0 L528.756517,16.9694544 L488.411016,40.3024543 L488.411016,0 L480.725663,0 L480.725663,18.0457191 L449.952963,0.282127629 L449.952963,0 L442.21547,0 L442.21547,4.75437301 L457.57575,13.6466179 L434.530116,26.9797607 L438.398863,33.6985779 L465.28196,18.1293125 L480.631812,27.0111082 L480.631812,44.7746997 L392.28674,95.9756398 L392.28674,31.4938028 L413.351075,43.698435 L413.351075,63.7399459 L421.088568,63.7399459 L421.088568,0 L413.351075,0 L413.351075,34.7434951 L392.28674,22.5284137 L392.28674,0 L384.549246,0 L384.549246,18.0561683 L353.296864,0 L337.863589,0 L371.09727,19.2264755 L315.412345,51.3890252 L315.412345,0 L307.622713,0 L307.622713,6.92780068 L307.622713,305.115807 Z M561.479232,96.0174365 L615.339276,127.176866 L615.339276,218.387683 L563.408391,188.346315 L559.539644,195.065133 L615.339276,227.342623 L615.339276,296.307155 L584.577005,278.543564 L584.577005,236.151275 L576.860367,236.151275 L576.860367,278.418173 L536.525294,301.751173 L536.525294,243.977704 L563.439675,228.408439 L559.570928,221.689622 L536.525294,235.022764 L536.525294,208.356479 L528.787801,208.356479 L528.787801,257.248152 L517.317124,250.623377 L517.317124,188.314968 L580.708258,151.638376 L598.008125,161.648682 L601.876872,154.929865 L584.577005,144.919559 L584.577005,124.909396 L576.860367,124.909396 L576.860367,144.919559 L517.337979,179.401825 L517.337979,121.586559 L561.479232,96.0174365 Z M488.411016,49.2678434 L528.69395,25.9348436 L528.69395,79.4137031 L505.752595,65.8297802 L501.800425,72.6217416 L528.69395,88.4522364 L528.69395,105.996395 L509.517063,117.103865 L509.517063,255.095623 L528.69395,266.203092 L528.69395,306.254766 L488.358877,329.587766 L488.411016,49.2678434 Z M480.725663,53.750538 L480.725663,195.921965 L459.744751,183.780028 L459.744751,86.1011728 L452.007257,86.1011728 L452.007257,112.631619 L415.509648,91.5033944 L480.725663,53.750538 Z M392.307595,104.951478 L407.730443,96.0278857 L452.007257,121.638805 L452.007257,188.314968 L480.725663,204.929151 L480.725663,262.890705 L469.254985,256.245032 L469.254985,222.807683 L438.471858,205.044091 L434.603111,211.762909 L461.517492,227.332174 L461.517492,251.751888 L421.119852,228.418888 L421.119852,166.141826 L438.419719,156.13152 L434.550972,149.423152 L413.382358,161.669581 L413.382358,223.946643 L392.28674,211.689765 L392.307595,104.951478 Z M392.307595,220.69695 L413.413642,232.901583 L413.413642,324.081053 L392.338879,311.824175 L392.307595,220.69695 Z M315.422773,104.920131 L340.449706,90.625664 L367.311947,106.017294 L371.170265,99.2880272 L344.235029,83.8546009 L344.235029,63.7399459 L336.497536,63.7399459 L336.497536,83.8441518 L315.360206,95.9338431 L315.360206,60.3439652 L378.793052,23.70917 L384.507535,27.0111082 L384.507535,163.153363 L351.878672,143.822396 L347.93693,150.468069 L384.497107,172.129201 L384.497107,207.20707 L315.360206,167.186743 L315.422773,104.920131 Z M315.422773,176.225277 L384.559674,216.224705 L384.559674,307.404175 L344.120322,284.00848 L344.120322,266.056804 L371.389251,250.299453 L367.520504,243.580636 L344.120322,257.049618 L344.120322,232.80754 L361.378478,222.807683 L357.499303,216.088866 L336.372401,228.335295 L336.372401,279.536235 L315.318494,267.352501 L315.422773,176.225277 Z M315.422773,276.370136 L371.107698,308.584931 L315.360206,340.642989 L315.422773,276.370136 Z M307.622713,238.418745 L307.622713,296.223562 L307.622713,238.418745 Z M307.622713,127.145518 L307.622713,229.463805 L307.622713,127.145518 Z" fill="#DBE0DF"></path>
                            <path d="M422.068789,569.15592 C422.010632,564.936294 420.272429,560.914845 417.240677,557.985756 C416.983456,558.22957 416.733186,558.48035 416.489869,558.738096 C410.769175,564.887397 411.105293,574.519074 417.240677,580.25294 C420.261288,577.333343 421.998431,573.329385 422.068789,569.124573" fill="#EFEFEF"></path>
                            <path d="M327.946667,556.125803 C331.608564,558.157309 335.925342,558.649622 339.949167,557.494645 C339.872696,557.153305 339.782321,556.804999 339.678042,556.449728 C338.501294,552.587907 335.841747,549.352683 332.284484,547.455784 C328.727221,545.558886 324.563643,545.155701 320.709713,546.33493 C321.721838,550.41837 324.31461,553.93008 327.915384,556.094456" fill="#EFEFEF"></path>
                            <path d="M361.941584,439.816076 C365.542357,437.6517 368.13513,434.13999 369.147255,430.05655 C368.813563,429.952058 368.465966,429.861498 368.104466,429.784871 C364.178626,428.874458 360.052654,429.564073 356.63424,431.702003 C353.215825,433.839933 350.784995,437.251046 349.876517,441.184917 C353.905967,442.356952 358.235111,441.87579 361.9103,439.847423" fill="#EFEFEF"></path>
                            <path d="M357.113472,640.147591 C360.782559,642.191109 365.112423,642.68739 369.147255,641.526882 C369.070784,641.185542 368.980409,640.837236 368.87613,640.481964 C367.699382,636.620144 365.039835,633.384919 361.482572,631.488021 C357.925309,629.591122 353.761731,629.187938 349.907801,630.367166 C350.919926,634.450607 353.512698,637.962317 357.113472,640.126693" fill="#EFEFEF"></path>
                            <path d="M307.622713,703.84574 L307.622713,710.773541 L315.360206,710.773541 L315.360206,659.342719 L371.045131,691.505269 L337.863589,710.773541 L353.296864,710.773541 L384.58053,692.717373 L384.58053,710.773541 L392.318023,710.773541 L392.318023,688.245127 L413.351075,676.061393 L413.351075,710.804888 L421.088568,710.804888 L421.088568,647.064942 L413.351075,647.064942 L413.351075,667.075106 L392.28674,679.279738 L392.28674,614.829248 L480.631812,666.030189 L480.631812,683.79378 L465.28196,692.675576 L438.398863,677.10631 L434.530116,683.825128 L457.57575,697.15827 L442.21547,706.050515 L442.21547,710.804888 L449.952963,710.804888 L449.952963,710.522761 L480.673523,692.759169 L480.673523,710.804888 L488.411016,710.804888 L488.411016,670.471086 L528.756517,693.824985 L528.756517,710.794439 L536.494011,710.794439 L536.494011,698.255433 L558.090168,710.794439 L573.533871,710.794439 L536.462727,689.34229 L536.462727,609.249391 L586.422741,638.172698 L586.422741,644.818371 L559.539644,660.387636 L563.408391,667.106453 L586.454025,653.77331 L586.454025,691.567964 L594.191518,691.567964 L594.191518,633.690003 L569.164585,619.238799 L615.287137,592.562064 L615.287137,694.869902 L587.788794,710.773541 L603.263781,710.773541 L615.255853,703.824842 L615.255853,710.773541 L622.982918,710.773541 L622.982918,355.334525 L615.255853,355.334525 L615.255853,405.574141 L580.624835,425.605203 L536.421015,400.025631 L536.421015,355.334525 L528.69395,355.334525 L528.69395,395.553385 L488.358877,372.220386 L488.358877,355.344974 L480.621384,355.344974 L480.621384,367.74814 L459.192073,355.344974 L443.717086,355.344974 L480.631812,376.70308 L480.631812,394.466672 L465.28196,403.338018 L438.440574,387.768753 L434.571828,394.48757 L457.617462,407.820713 L442.257182,416.712958 L442.257182,440.39078 L449.994675,440.39078 L449.994675,421.185203 L480.704807,403.421612 L480.704807,438.948795 L421.130279,473.43106 L421.130279,357.758732 L413.392786,357.758732 L413.392786,377.768896 L392.28674,389.983977 L392.28674,355.334525 L384.517963,355.334525 L384.517963,394.466672 L378.80348,397.76861 L315.370634,361.133815 L315.370634,355.334525 L307.622713,355.334525 L307.622713,405.595039 L307.622713,703.84574 Z M307.622713,592.572513 L307.622713,694.869902 L307.622713,592.572513 Z M517.337979,589.186982 L517.337979,531.371716 L576.860367,565.853982 L576.860367,585.864145 L584.577005,585.864145 L584.577005,565.853982 L601.876872,555.843676 L598.008125,549.124858 L580.708258,559.135165 L517.317124,522.458573 L517.317124,460.139714 L528.787801,453.51494 L528.787801,502.406613 L536.525294,502.406613 L536.525294,475.740327 L559.570928,489.07347 L563.439675,482.354653 L536.525294,466.785387 L536.525294,409.022367 L576.860367,432.355367 L576.860367,474.622266 L584.577005,474.622266 L584.577005,432.219528 L615.339276,414.455937 L615.339276,483.420468 L559.539644,515.697959 L563.408391,522.416776 L615.339276,492.375408 L615.339276,583.586226 L561.479232,614.745655 L517.337979,589.186982 Z M488.379733,381.175326 L528.69395,404.508325 L528.69395,444.56 L509.517063,455.667469 L509.517063,593.669676 L528.69395,604.777146 L528.69395,622.321304 L501.758714,638.151799 L505.710884,644.943761 L528.725234,631.359838 L528.725234,684.838697 L488.390161,661.505697 L488.379733,381.175326 Z M415.457508,619.270146 L451.955118,598.141922 L451.955118,624.672368 L459.692611,624.672368 L459.692611,526.983064 L480.725663,514.851576 L480.725663,657.023003 L415.457508,619.270146 Z M392.28674,499.104675 L413.382358,486.847796 L413.382358,549.124858 L434.550972,561.371287 L438.419719,554.65247 L421.119852,544.642164 L421.119852,482.365102 L461.465352,459.032102 L461.465352,483.451816 L434.550972,499.021081 L438.419719,505.739898 L469.254985,487.976307 L469.254985,454.538958 L480.725663,447.893285 L480.725663,505.84439 L451.955118,522.458573 L451.955118,589.134736 L407.730443,614.745655 L392.307595,605.822063 L392.28674,499.104675 Z M392.28674,398.959815 L413.361502,386.702937 L413.361502,477.882407 L392.255456,490.066141 L392.28674,398.959815 Z M315.360206,543.586797 L384.497107,503.566471 L384.497107,538.644339 L347.93693,560.305472 L351.878672,566.951145 L384.507535,547.620178 L384.507535,683.762433 L378.793052,687.064371 L315.360206,650.429576 L315.360206,614.839698 L336.497536,626.950287 L336.497536,647.054493 L344.235029,647.054493 L344.235029,626.950287 L371.118126,611.516861 L367.259807,604.787595 L340.397566,620.179224 L315.370634,605.884758 L315.360206,543.586797 Z M315.360206,443.42104 L336.414113,431.237306 L336.414113,482.438246 L357.541015,494.684675 L361.42019,487.965858 L344.120322,477.966001 L344.120322,453.723923 L367.520504,467.192905 L371.389251,460.474088 L344.120322,444.716737 L344.120322,426.765061 L384.507535,403.338018 L384.507535,494.517488 L315.370634,534.516917 L315.360206,443.42104 Z M315.360206,370.130551 L371.055559,402.188609 L315.370634,434.403405 L315.360206,370.130551 Z M307.622713,481.299286 L307.622713,583.617573 L307.622713,481.299286 Z M307.622713,414.53953 L307.622713,472.30255 L307.622713,414.53953 Z" fill="#EFEFEF"></path>
                            <path d="M277.882374,186.110193 C277.952733,190.315005 279.689876,194.318964 282.710487,197.23856 C288.845871,191.504694 289.181989,181.873017 283.461295,175.723716 C283.217977,175.46597 282.967708,175.21519 282.710487,174.971376 C279.690838,177.891642 277.953878,181.89518 277.882374,186.099744" fill="#EFEFEF"></path>
                            <path d="M258.611636,319.629706 C258.681995,323.834518 260.419138,327.838477 263.439749,330.758073 C269.575132,325.024207 269.911251,315.39253 264.190557,309.243229 C263.947239,308.985483 263.69697,308.734703 263.439749,308.490889 C260.419138,311.410486 258.681995,315.414444 258.611636,319.619256" fill="#EFEFEF"></path>
                            <path d="M193.416477,288.219496 C189.815704,290.383872 187.222931,293.895582 186.210806,297.979022 C190.064737,299.158251 194.228314,298.755066 197.785577,296.858168 C201.34284,294.961269 204.002388,291.726045 205.179135,287.864224 C205.283414,287.529851 205.373789,287.181545 205.45026,286.819307 C201.415331,285.659969 197.085922,286.156198 193.416477,288.198598" fill="#EFEFEF"></path>
                            <path d="M244.210722,264.08191 C245.1192,268.015782 247.55003,271.426895 250.968445,273.564825 C254.386859,275.702755 258.512831,276.392369 262.438671,275.481956 C262.779316,275.405329 263.126912,275.31477 263.48146,275.210278 C262.572982,271.276406 260.142152,267.865293 256.723738,265.727363 C253.305323,263.589433 249.179351,262.899819 245.253511,263.810232 C244.912867,263.886859 244.56527,263.977418 244.210722,264.08191" fill="#EFEFEF"></path>
                            <path d="M251.437249,140.468212 C255.105977,142.512849 259.436297,143.009183 263.471032,141.847503 C262.567078,137.912028 260.139753,134.49767 256.723186,132.355753 C253.30662,130.213836 249.180765,129.519869 245.253511,130.426558 C244.898963,130.510151 244.551367,130.604194 244.210722,130.708686 C245.220721,134.793129 247.81404,138.305581 251.416393,140.468212" fill="#EFEFEF"></path>
                            <path d="M0,15.8827406 L0,118.190578 L0,15.8827406 Z M0,305.115807 L0,355.376321 L7.7479212,355.376321 L7.7479212,349.629277 L71.1807673,312.994482 L76.8952502,316.29642 L76.8952502,355.428567 L84.6640272,355.428567 L84.6640272,320.789564 L105.770074,333.004645 L105.770074,358.406581 L113.507567,358.406581 L113.507567,237.332031 L173.082094,271.814297 L173.082094,307.34148 L142.371963,289.577889 L142.371963,270.361862 L134.634469,270.361862 L134.634469,294.039685 L149.994749,302.93193 L126.949115,316.265072 L130.817862,322.98389 L157.659247,307.414624 L173.009099,316.29642 L173.009099,334.060011 L136.094374,355.418118 L151.611072,355.418118 L173.040383,343.014951 L173.040383,355.418118 L180.777876,355.418118 L180.777876,338.553155 L221.071237,315.220155 L221.071237,355.439016 L228.808731,355.439016 L228.808731,310.737461 L273.01255,285.157889 L307.643568,305.188951 L307.643568,355.428567 L315.370634,355.428567 L315.370634,0 L307.643568,0 L307.643568,6.94869902 L295.693208,0 L280.218221,0 L307.716563,15.903639 L307.716563,118.211477 L261.594012,91.534742 L286.620945,77.0835378 L286.620945,19.2055771 L278.883452,19.2055771 L278.883452,57.0002303 L255.837818,43.6670875 L251.969071,50.3859048 L278.883452,65.9551702 L278.883452,72.6008433 L228.871298,101.52415 L228.871298,21.452149 L265.911158,0 L250.467455,0 L228.871298,12.5390057 L228.871298,0 L221.133805,0 L221.133805,16.9694544 L180.788304,40.3024543 L180.788304,0 L173.10295,0 L173.10295,18.0457191 L142.330251,0.282127629 L142.330251,0 L134.592758,0 L134.592758,4.75437301 L149.953037,13.6466179 L126.907404,26.9797607 L130.77615,33.6985779 L157.659247,18.1293125 L173.009099,27.0111082 L173.009099,44.7746997 L84.6640272,95.9756398 L84.6640272,31.4938028 L105.728362,43.698435 L105.728362,63.7399459 L113.465855,63.7399459 L113.465855,0 L105.728362,0 L105.728362,34.7434951 L84.6640272,22.5284137 L84.6640272,0 L76.9265339,0 L76.9265339,18.0561683 L45.6741519,0 L30.2408768,0 L63.4224182,19.2264755 L7.73749331,51.3890252 L7.73749331,0 L0,0 L0,6.92780068 L0,305.115807 Z M253.856519,96.0174365 L307.716563,127.176866 L307.716563,218.387683 L255.785678,188.346315 L251.916932,195.065133 L307.716563,227.342623 L307.716563,296.307155 L276.954292,278.543564 L276.954292,236.151275 L269.237655,236.151275 L269.237655,278.418173 L228.902582,301.751173 L228.902582,243.977704 L255.816962,228.408439 L251.948215,221.689622 L228.902582,235.022764 L228.902582,208.356479 L221.165088,208.356479 L221.165088,257.248152 L209.694411,250.623377 L209.694411,188.314968 L273.085546,151.638376 L290.385413,161.648682 L294.254159,154.929865 L276.954292,144.919559 L276.954292,124.909396 L269.237655,124.909396 L269.237655,144.919559 L209.715267,179.401825 L209.715267,121.586559 L253.856519,96.0174365 Z M180.788304,49.2678434 L221.071237,25.9348436 L221.071237,79.4137031 L198.129883,65.8297802 L194.177713,72.6217416 L221.071237,88.4522364 L221.071237,105.996395 L201.89435,117.103865 L201.89435,255.095623 L221.071237,266.203092 L221.071237,306.254766 L180.736165,329.587766 L180.788304,49.2678434 Z M173.10295,53.750538 L173.10295,195.921965 L152.122038,183.780028 L152.122038,86.1011728 L144.384545,86.1011728 L144.384545,112.631619 L107.886935,91.5033944 L173.10295,53.750538 Z M84.684883,104.951478 L100.10773,96.0278857 L144.384545,121.638805 L144.384545,188.314968 L173.10295,204.929151 L173.10295,262.890705 L161.632273,256.245032 L161.632273,222.807683 L130.849146,205.044091 L126.980399,211.762909 L153.894779,227.332174 L153.894779,251.751888 L113.497139,228.418888 L113.497139,166.141826 L130.797006,156.13152 L126.92826,149.423152 L105.759646,161.669581 L105.759646,223.946643 L84.6640272,211.679315 L84.684883,104.951478 Z M84.684883,220.69695 L105.790929,232.901583 L105.790929,324.081053 L84.6640272,311.824175 L84.684883,220.69695 Z M7.7479212,104.920131 L32.7748537,90.625664 L59.6370947,106.017294 L63.4954134,99.2671288 L36.6123167,83.8546009 L36.6123167,63.7399459 L28.8748234,63.7399459 L28.8748234,83.8441518 L7.73749331,95.9338431 L7.73749331,60.3439652 L71.1703394,23.70917 L76.8848223,27.0111082 L76.8848223,163.153363 L44.255959,143.822396 L40.3142172,150.468069 L76.8743945,172.129201 L76.8743945,207.20707 L7.73749331,167.186743 L7.7479212,104.920131 Z M7.7479212,176.225277 L76.8848223,216.224705 L76.8848223,307.404175 L36.49761,284.00848 L36.49761,266.056804 L63.7665385,250.299453 L59.8977919,243.580636 L36.49761,257.049618 L36.49761,232.80754 L53.7557655,222.807683 L49.876591,216.088866 L28.7914003,228.335295 L28.7914003,279.536235 L7.73749331,267.352501 L7.7479212,176.225277 Z M7.7479212,276.370136 L63.4328461,308.584931 L7.73749331,340.642989 L7.7479212,276.370136 Z M0,238.418745 L0,296.223562 L0,238.418745 Z M0,127.145518 L0,229.463805 L0,127.145518 Z" fill="#EFEFEF"></path>
                            <polygon fill="#EFEFEF" points="278.820884 308.501338 278.820884 346.285542 255.785678 332.952399 251.906504 339.671217 278.820884 355.250931 278.820884 355.428567 286.568805 355.428567 286.568805 308.501338"></polygon>
                            <polygon fill="#EFEFEF" points="197.983892 355.428567 198.463575 355.428567 198.109027 355.219584"></polygon>
                            <path d="M277.882374,524.673797 C277.953878,528.878361 279.690838,532.881899 282.710487,535.802165 C282.967708,535.558351 283.217977,535.307571 283.461295,535.049824 C289.181989,528.900524 288.845871,519.268847 282.710487,513.53498 C279.689876,516.454577 277.952733,520.458536 277.882374,524.663348" fill="#EFEFEF"></path>
                            <path d="M193.416477,422.554045 C197.080172,424.590778 201.400903,425.086872 205.429405,423.933335 C205.352933,423.591996 205.262558,423.24369 205.15828,422.888418 C202.721022,414.844688 194.238937,410.302633 186.210806,412.742273 C187.222931,416.825713 189.815704,420.337423 193.416477,422.501799" fill="#EFEFEF"></path>
                            <path d="M244.210722,446.691631 C244.544415,446.796122 244.892011,446.886682 245.253511,446.963309 C249.179351,447.873722 253.305323,447.184108 256.723738,445.046178 C260.142152,442.908248 262.572982,439.497134 263.48146,435.563263 C263.147768,435.458771 262.800172,435.368212 262.438671,435.291585 C258.512831,434.381172 254.386859,435.070786 250.968445,437.208716 C247.55003,439.346646 245.1192,442.757759 244.210722,446.691631" fill="#EFEFEF"></path>
                            <path d="M251.416393,570.305329 C247.81404,572.46796 245.220721,575.980412 244.210722,580.064855 C244.558318,580.169347 244.905915,580.263389 245.253511,580.346983 C249.180765,581.253672 253.30662,580.559704 256.723186,578.417788 C260.139753,576.275871 262.567078,572.861513 263.471032,568.926038 C259.436297,567.764358 255.105977,568.260692 251.437249,570.305329" fill="#EFEFEF"></path>
                            <path d="M258.611636,680.470944 C258.681995,684.675756 260.419138,688.679714 263.439749,691.599311 C266.520314,688.721641 268.269636,684.691091 268.269636,680.470944 C268.269636,676.250796 266.520314,672.220247 263.439749,669.342576 C260.4201,672.262842 258.68314,676.26638 258.611636,680.470944" fill="#EFEFEF"></path>
                            <path d="M186.210806,702.090279 C187.09107,705.523258 189.068834,708.573029 191.841866,710.773541 L204.584746,710.773541 C203.319967,707.71028 201.094468,705.142799 198.244589,703.459121 C194.574422,701.417993 190.244169,700.925428 186.210806,702.090279" fill="#EFEFEF"></path>
                            <path d="M0,703.84574 L0,710.773541 L7.73749331,710.773541 L7.73749331,659.342719 L63.4224182,691.505269 L30.2408768,710.773541 L45.6741519,710.773541 L76.9578176,692.717373 L76.9578176,710.773541 L84.6953109,710.773541 L84.6953109,688.245127 L105.728362,676.061393 L105.728362,710.804888 L113.465855,710.804888 L113.465855,647.064942 L105.728362,647.064942 L105.728362,667.075106 L84.6640272,679.279738 L84.6640272,614.829248 L173.009099,666.030189 L173.009099,683.79378 L157.659247,692.675576 L130.77615,677.10631 L126.907404,683.825128 L149.953037,697.15827 L134.592758,706.050515 L134.592758,710.804888 L142.330251,710.804888 L142.330251,710.522761 L173.050811,692.759169 L173.050811,710.804888 L180.788304,710.804888 L180.788304,670.471086 L221.133805,693.824985 L221.133805,710.794439 L228.871298,710.794439 L228.871298,698.255433 L250.467455,710.794439 L265.911158,710.794439 L228.840014,689.34229 L228.840014,609.249391 L278.800029,638.172698 L278.800029,644.818371 L251.916932,660.387636 L255.785678,667.106453 L278.831312,653.77331 L278.831312,691.567964 L286.568805,691.567964 L286.568805,633.690003 L261.541873,619.238799 L307.664424,592.562064 L307.664424,694.869902 L280.166082,710.773541 L295.641069,710.773541 L307.63314,703.824842 L307.63314,710.773541 L315.360206,710.773541 L315.360206,355.334525 L307.63314,355.334525 L307.63314,405.574141 L273.002122,425.605203 L228.798303,400.025631 L228.798303,355.334525 L221.071237,355.334525 L221.071237,395.553385 L180.736165,372.220386 L180.736165,355.344974 L172.998671,355.344974 L172.998671,367.74814 L151.56936,355.344974 L136.094374,355.344974 L173.009099,376.70308 L173.009099,394.466672 L157.659247,403.338018 L130.817862,387.768753 L126.949115,394.48757 L149.994749,407.820713 L134.634469,416.712958 L134.634469,440.39078 L142.371963,440.39078 L142.371963,421.185203 L173.082094,403.421612 L173.082094,438.948795 L113.507567,473.43106 L113.507567,357.758732 L105.770074,357.758732 L105.770074,377.768896 L84.6640272,389.983977 L84.6640272,355.334525 L76.8952502,355.334525 L76.8952502,394.466672 L71.1807673,397.76861 L7.7479212,361.133815 L7.7479212,355.334525 L0,355.334525 L0,405.595039 L0,703.84574 Z M0,592.582962 L0,694.869902 L0,592.582962 Z M209.715267,589.186982 L209.715267,531.371716 L269.237655,565.853982 L269.237655,585.864145 L276.954292,585.864145 L276.954292,565.853982 L294.254159,555.843676 L290.385413,549.124858 L273.085546,559.135165 L209.694411,522.458573 L209.694411,460.139714 L221.165088,453.51494 L221.165088,502.406613 L228.902582,502.406613 L228.902582,475.740327 L251.948215,489.07347 L255.816962,482.354653 L228.902582,466.785387 L228.902582,409.022367 L269.237655,432.355367 L269.237655,474.622266 L276.954292,474.622266 L276.954292,432.219528 L307.716563,414.455937 L307.716563,483.420468 L251.916932,515.697959 L255.785678,522.416776 L307.716563,492.375408 L307.716563,583.586226 L253.856519,614.745655 L209.715267,589.186982 Z M180.75702,381.175326 L221.071237,404.508325 L221.071237,444.56 L201.89435,455.667469 L201.89435,593.669676 L221.071237,604.777146 L221.071237,622.321304 L194.136001,638.151799 L198.088171,644.943761 L221.102521,631.359838 L221.102521,684.838697 L180.767448,661.505697 L180.75702,381.175326 Z M107.834796,619.270146 L144.332406,598.141922 L144.332406,624.672368 L152.069899,624.672368 L152.069899,526.983064 L173.10295,514.851576 L173.10295,657.023003 L107.834796,619.270146 Z M84.6640272,499.104675 L105.759646,486.847796 L105.759646,549.124858 L126.92826,561.371287 L130.797006,554.65247 L113.497139,544.642164 L113.497139,482.365102 L153.84264,459.032102 L153.84264,483.451816 L126.92826,499.021081 L130.797006,505.739898 L161.632273,487.976307 L161.632273,454.538958 L173.10295,447.893285 L173.10295,505.84439 L144.332406,522.458573 L144.332406,589.134736 L100.10773,614.745655 L84.684883,605.822063 L84.6640272,499.104675 Z M84.6640272,398.959815 L105.73879,386.702937 L105.73879,477.882407 L84.6327435,490.066141 L84.6640272,398.959815 Z M7.73749331,543.586797 L76.8743945,503.566471 L76.8743945,538.644339 L40.3142172,560.305472 L44.255959,566.951145 L76.8848223,547.620178 L76.8848223,683.762433 L71.1703394,687.064371 L7.73749331,650.429576 L7.73749331,614.839698 L28.8748234,626.950287 L28.8748234,647.054493 L36.6123167,647.054493 L36.6123167,626.950287 L63.4954134,611.485514 L59.6370947,604.756247 L32.7748537,620.147877 L7.7479212,605.85341 L7.73749331,543.586797 Z M7.73749331,443.42104 L28.7914003,431.237306 L28.7914003,482.438246 L49.9183025,494.684675 L53.7974771,487.976307 L36.49761,477.966001 L36.49761,453.723923 L59.8977919,467.192905 L63.7665385,460.474088 L36.49761,444.716737 L36.49761,426.765061 L76.8848223,403.338018 L76.8848223,494.517488 L7.7479212,534.548264 L7.73749331,443.42104 Z M7.73749331,370.130551 L63.4328461,402.188609 L7.7479212,434.403405 L7.73749331,370.130551 Z M0,481.299286 L0,583.617573 L0,481.299286 Z M0,414.549979 L0,472.30255 L0,414.549979 Z" fill="#EFEFEF"></path>
                            <polygon fill="#EFEFEF" points="286.568805 402.272203 286.568805 355.334525 278.820884 355.334525 278.820884 355.52261 278.820884 364.47755 278.820884 402.272203"></polygon>
                            <polygon fill="#EFEFEF" points="198.109027 355.543508 198.463575 355.334525 197.983892 355.334525"></polygon>
                        </g>
                    </g>
                </g>
            </g>
        </g>
    </g>
</svg>