<?xml version="1.0" encoding="UTF-8"?>
<svg width="12px" height="12px" viewBox="0 0 12 12" version="1.1" xmlns="http://www.w3.org/2000/svg" xmlns:xlink="http://www.w3.org/1999/xlink">
    <!-- Generator: sketchtool 52.4 (67378) - http://www.bohemiancoding.com/sketch -->
    <title>1D16CA09-9EA7-463E-820F-586FC2CA8241</title>
    <desc>Created with sketchtool.</desc>
    <g id="Page-1" stroke="none" stroke-width="1" fill="none" fill-rule="evenodd">
        <g id="2.2-Home" transform="translate(-1033.000000, -10402.000000)" fill="#FFFFFF" fill-rule="nonzero">
            <g id="Group-25">
                <g id="Group-22" transform="translate(80.000000, 940.000000)">
                    <g id="Group-24" transform="translate(0.000000, 6253.000000)">
                        <g id="Group-11" transform="translate(0.000000, 2829.000000)">
                            <g id="Footer" transform="translate(0.000000, 338.000000)">
                                <g id="Group-15" transform="translate(40.000000, 42.000000)">
                                    <g id="social" transform="translate(790.000000, 0.000000)">
                                        <g id="insta" transform="translate(123.371281, 0.666667)">
                                            <path d="M10.9722063,1.88474627 C10.8108504,1.4920908 10.6494944,1.25649751 10.3267824,0.86384204 C10.0040705,0.549717662 9.68135854,0.392655473 9.2779686,0.235593284 C8.87457866,0.0785310946 8.47118872,0.0785310946 7.90644281,0 L5.64745915,0 C5.64745915,0 3.9532214,0 3.3077975,0.0785310946 C2.74305159,0.0785310946 2.25898366,0.157062189 1.85559372,0.392655473 C1.61355976,0.471186567 1.2908478,0.628248757 0.968135854,0.942373135 C0.645423902,1.17796642 0.484067927,1.57062189 0.322711951,1.88474627 C0.161355976,2.19887065 0.0806779878,2.67005722 0.0806779878,3.21977488 C0,3.84802363 0,5.49717662 0,5.49717662 C0,5.49717662 0,7.14632961 0.0806779878,7.77457836 C0.161355976,8.40282712 0.161355976,8.79548259 0.403389939,9.10960697 C0.564745915,9.50226244 0.72610189,9.73785573 1.04881384,10.1305112 C1.37152579,10.4446356 1.69423774,10.6016978 2.09762768,10.75876 C2.50101762,10.9158221 2.82372957,10.9158221 3.46915348,10.9943532 L5.64745915,10.9943532 C5.64745915,10.9943532 7.34169689,10.9943532 7.98712079,10.9158221 C8.55186671,10.8372911 9.03593463,10.8372911 9.35864659,10.6016978 C9.76203652,10.4446356 10.0040705,10.2875734 10.4074604,9.97344901 C10.7301724,9.65932463 10.8915284,9.34520025 11.0528843,8.95254478 C11.2142403,8.55988931 11.2142403,8.24576493 11.2949183,7.61751617 L11.2949183,5.49717662 C11.2949183,5.49717662 11.2949183,3.84802363 11.2949183,3.21977488 C11.2142403,2.67005722 11.2142403,2.27740174 10.9722063,1.88474627 Z M5.64745915,8.32429602 C4.03389939,8.32429602 2.74305159,7.06779851 2.74305159,5.49717662 C2.74305159,3.92655473 3.9532214,2.67005722 5.64745915,2.67005722 C7.34169689,2.67005722 8.55186671,3.92655473 8.55186671,5.49717662 C8.55186671,7.06779851 7.2610189,8.32429602 5.64745915,8.32429602 Z M8.6325447,3.21977488 C8.22915476,3.21977488 7.98712079,2.9056505 7.98712079,2.59152612 C7.98712079,2.27740174 8.30983274,1.96327736 8.6325447,1.96327736 C9.03593463,1.96327736 9.2779686,2.27740174 9.2779686,2.59152612 C9.2779686,2.9056505 9.03593463,3.21977488 8.6325447,3.21977488 Z M5.64745915,3.69096144 C6.69627299,3.69096144 7.50305287,4.47627239 7.50305287,5.49717662 C7.50305287,6.51808085 6.69627299,7.3033918 5.64745915,7.3033918 C4.5986453,7.3033918 3.79186543,6.51808085 3.79186543,5.49717662 C3.79186543,4.47627239 4.5986453,3.69096144 5.64745915,3.69096144 Z" id="Shape"></path>
                                        </g>
                                    </g>
                                </g>
                            </g>
                        </g>
                    </g>
                </g>
            </g>
        </g>
    </g>
</svg>