<?xml version="1.0" encoding="UTF-8"?>
<svg width="25px" height="21px" viewBox="0 0 25 21" version="1.1" xmlns="http://www.w3.org/2000/svg" xmlns:xlink="http://www.w3.org/1999/xlink">
    <!-- Generator: sketchtool 52.2 (67145) - http://www.bohemiancoding.com/sketch -->
    <title>75F8ABD9-CB52-4CF5-AAAB-D71DE1C07ADC</title>
    <desc>Created with sketchtool.</desc>
    <g id="Page-1" stroke="none" stroke-width="1" fill="none" fill-rule="evenodd">
        <g id="2.2-Home" transform="translate(-988.000000, -10347.000000)">
            <g id="Group-25">
                <g id="Group-22" transform="translate(80.000000, 940.000000)">
                    <g id="Group-24" transform="translate(0.000000, 6253.000000)">
                        <g id="Group-11" transform="translate(0.000000, 2829.000000)">
                            <g id="Group-2" transform="translate(908.000000, 325.000000)">
                                <polygon id="Rectangle-23-Copy" fill="#044381" transform="translate(12.618446, 12.618446) rotate(45.000000) translate(-12.618446, -12.618446) " points="6.68401273 6.68401273 18.55288 6.68401273 18.55288 18.55288 6.68401273 18.55288"></polygon>
                                <polygon id="Rectangle-23" fill="#0071E0" transform="translate(12.500000, 12.500000) rotate(45.000000) translate(-12.500000, -12.500000) " points="4.16666667 4.16666667 20.8333333 4.16666667 20.8333333 11.9107443 11.9944986 11.9944986 12.5 20.8333333 4.16666667 20.8333333"></polygon>
                            </g>
                        </g>
                    </g>
                </g>
            </g>
        </g>
    </g>
</svg>