<svg xmlns="http://www.w3.org/2000/svg" width="149" height="36" viewBox="0 0 149 36">
    <g fill="#1F1F1F" fill-rule="nonzero">
        <path d="M9.8 0c.6.1 1.1.5 1.6.9l14.1 10.2c.7.5 1.3 1.1 1.5 1.9.1.3.1.6.1.8v3.8c0 1.1-.5 1.8-1.6 2-2.4.7-4.8 1.3-7.2 2-.1 0-.3 0-.4-.1-2.5-2-4.9-4.1-7.4-6.1 0 0-.1-.1-.2-.1.3-.1.6-.2.8-.2 2.2-.6 4.5-1.2 6.7-1.9 1.1-.3 1.5-.8 1.5-1.9V8.2c0-.5-.1-.9-.5-1.2-.4-.3-.8-.6-1.1-.9-.1-.1-.2-.1-.4-.1-.5.1-.9.5-1.2.9-1.2 1.7-2.5 3.3-3.7 5-1.1 1.5-2.1 2.9-3.2 4.4-.8 1-1.2 2.2-1.2 3.5v7.7c.1 0 .3-.1.4-.1 3.5-1.2 6.9-2.3 10.4-3.5.3-.1.5-.1.7.1 2.4 1.9 4.9 3.8 7.3 5.7.1.1.2.1.3.2-.2.1-.2.1-.3.1l-16.5 5.7c-.5.2-.9.3-1.4.3-.2 0-.5-.1-.7-.3L1.3 30c-.6-.5-1.1-1-1.1-1.8 0 0 0-.1-.1-.1V12.5c0-.2.1-.3.1-.5.1-.7.5-1.2.9-1.8 2-2.8 4.1-5.7 6.1-8.5C7.7 1 8.2.3 9.1.1c.3-.1.5-.1.7-.1zM148.9 14.5c-.5.9-1 1.6-2.2 1.6-1.1 0-2-.7-2.2-1.7-.2-1 .4-2 1.3-2.3 1-.4 2.1 0 2.6.9l.3.6c.2.3.2.6.2.9zm-.5-.5c0-1-.8-1.7-1.7-1.7-.9 0-1.7.8-1.7 1.8s.8 1.7 1.7 1.7c.9 0 1.7-.8 1.7-1.8zM38.2 20.3v2c0 .6.5.7 1 .7H48v2.1h-8.4c-2.4 0-3.6-1.1-3.6-3.6v-6.3c0-2 1.2-3.2 3.2-3.2 2.4 0 4.8.1 7.2 0 1.5-.1 2.6 1.1 2.7 2.6v.6c0 2.5-.9 3.4-3.4 3.8-2.5.4-5 .9-7.5 1.3zm0-2.1c.3 0 .6 0 .8-.1 2.1-.3 4.2-.7 6.3-1 1.6-.3 1.8-.5 1.7-2.1 0-.5-.3-.8-.8-.8h-7c-.6 0-.9.3-1 .8-.1 1 0 2.1 0 3.2zM84.8 14.1v-2h8.6c2.1 0 3.3 1.2 3.3 3.3v6.5c0 2-1.3 3.3-3.3 3.3h-7.1c-1.6 0-2.7-1-2.7-2.7v-.9c0-2 .9-3 2.9-3.3l7.5-1.2c.4-.1.6-.2.6-.7.1-2.1.1-2.1-2-2.1h-7c-.2-.2-.5-.2-.8-.2zm9.8 4.8c-2.5.4-4.9.8-7.2 1.2-1.6.3-1.7.4-1.6 2 0 .6.3.9.9.9h7c.6 0 1-.3 1-.9-.1-1-.1-2.1-.1-3.2zM128.7 23v1.6c0 .2-.3.5-.5.5-2.8 0-5.6.1-8.4 0-1.9-.1-3-1.3-3-3.2v-6.7c0-2 1.2-3.1 3.2-3.1h7.2c1.5 0 2.5.8 2.6 2.3.1.7.1 1.4 0 2-.1 1.3-1 2.2-2.5 2.5-2.5.4-5 .9-7.5 1.3-1 .2-1.1.3-1 1.8.1.9.3 1.1 1.3 1.1 2.8-.1 5.6-.1 8.6-.1zm-9.8-4.8c.4 0 .7-.1.9-.1 2.1-.3 4.2-.7 6.3-1 1.5-.2 1.7-.5 1.6-2 0-.6-.3-1-1-.9h-6.8c-.7 0-1.1.3-1.1 1 .1.9.1 1.9.1 3zM63.2 12.1v2h-9c-.5 0-1.2-.1-1.3.7-.1.8.1 1.2 1 1.5 2.4.8 4.8 1.5 7.1 2.3.4.1.9.3 1.3.5 1 .5 1.7 1.2 1.6 2.4v1c.1 1.8-1 2.5-2.4 2.5H51.4c-.2 0-.5-.3-.5-.5-.1-.5 0-1 0-1.6h9.8c.5 0 1 .1 1.1-.6.1-.6.1-1.2-.6-1.5-.8-.3-1.5-.5-2.3-.8-1.8-.6-3.7-1.1-5.5-1.7-.5-.2-1-.4-1.5-.7-.7-.4-1-1-1-1.8v-1.6c.1-1.1 1-2.2 2.1-2.2 3.3 0 6.7.1 10.2.1zM138.2 14.2v10.9h-2.1V14.2h-4.8v-2.1h11.9v1.6c0 .2-.4.4-.6.4h-3.4c-.4 0-.6.1-1 .1zM110.2 14.1V25h-2.1v-.9-9.2c0-.6-.2-.8-.8-.8h-3.4c-.6 0-.8-.1-.8-.7v-1.3H115v2h-4.8zM77.1 14.1h-3.9c-1 0-1 0-1 1v8.8c0 1.1 0 1.1-1.1 1.1h-.9v-1-9.1c0-.7-.2-.9-.9-.9-1.3.1-2.7 0-4.1 0v-2h11.9v2.1zM126.3 34.1h1.6v-2.6-1.1c0-.1.2-.2.3-.4.1.1.2.3.3.4v2c0 .7-.2 1.4.3 2 .2.3 0 .8 0 1.2h-.3c-.1-.3-.2-.7-.3-1.1h-4.8v-4.2c0-.1.2-.2.2-.3.1.1.3.3.3.4V34h1.6v-2.9-.6c0-.2.2-.3.3-.5.1.1.3.3.3.4v3c.2.2.2.4.2.7zM113.4 30.1h2.6v3.1c0 .4.3.7.3 1.1.1.5 0 .9 0 1.4h-.3c-.1-.3-.1-.7-.2-1h-3c-.1.3-.2.7-.2 1-.2-.5-.6-.9 0-1.6.5-.6.6-1.4.7-2.2.2-.6.1-1.2.1-1.8zm2 .4H114l-.6 3.6h2v-3.6zM77.6 34.5h-3.1V30c.1 0 .2-.1.3-.1.1.2.2.4.2.7V34h2.3v-3.3c0-.2.2-.4.3-.7.1.2.2.5.2.7v2c0 .5.3 1 .3 1.6.1.4 0 .8 0 1.2h-.3c0-.2-.1-.6-.2-1zM36 34.7c-.3-2.2-.1-4.4.4-4.6v3.6c1.1-1.3 1.6-2.8 2.9-3.8v4.6H39c-.1-1.2 0-2.4 0-3.8-.6.9-1.1 1.7-1.6 2.4-.2.3-.4.7-.7 1-.1.3-.4.4-.7.6zM68.8 30.1v3.6h.2c.7-1 1.3-2.1 2-3.1.2-.2.5-.3.7-.5.1.3.2.5.2.8V34c0 .2-.1.4-.2.6-.1 0-.2 0-.2-.1V31s-.1 0-.1-.1c-.7 1-1.3 2-2 3.1-.2.2-.4.4-.8.7V30c0 .1.1.1.2.1zM86.3 34.4v-4c0-.1.2-.3.3-.4.1.1.2.3.3.4v3.4c.8-1.2 1.4-2.2 2.2-3.3.2-.2.4-.4.7-.6v4.6h-.2V31h-.2c-.7 1-1.3 2.1-2 3.1-.2.2-.5.4-.7.6-.2-.2-.3-.2-.4-.3zM80.8 33.7c.9-1.3 1.8-2.5 2.7-3.7 0-.1.2 0 .4 0v4.4c-.1 0-.2.1-.2.1-.1-.2-.2-.4-.2-.6v-3.1c-.8 1.2-1.4 2.2-2.2 3.3-.2.2-.4.4-.8.6v-4.6h.3c.1 1.1-.1 2.3 0 3.6zM97.4 32.2c.4.2.8.7.6 1.4-.3.7-.9.8-1.5.9h-1.4v-4.2c0-.1 0-.2.1-.2.6 0 1.2-.2 1.8-.1.3 0 .8.4.8.7 0 .5-.2 1-.4 1.5zm-1.7 1.9c.7.1 1.3.2 1.7-.4.1-.2.1-.7 0-.9-.4-.6-1-.5-1.7-.4v1.7zm-.2-2.2c.8.1 1.4.2 1.7-.4.1-.2 0-.7-.1-.8-.4-.2-1.1-.4-1.2-.2-.2.2-.3.8-.4 1.4zM48 34.5V30c.9 0 1.9-.4 2.5.5.5.6-.1 1.1-.5 1.5.6.3 1 .8.8 1.4-.2.7-.8.9-1.5 1-.4.1-.9.1-1.3.1zm.4-1.4c0 1 0 1.1.6 1.1.8 0 1.3-.4 1.3-.9 0-.6-.5-.9-1.2-.9-.8-.2-.7.3-.7.7zm-.1-1.2c.8.1 1.4.2 1.7-.4.1-.2 0-.7-.2-.8-.4-.2-1.1-.4-1.2-.2-.2.3-.2.8-.3 1.4zM103.1 34.5v-4.4h2.5v.3c-.6 0-1.3.1-2 .1v1.2c1 .2 2.5-.1 2.3 1.7 0 .9-1 1.3-2.8 1.1zm.4-.4c.8.2 1.5.2 1.8-.5.1-.3.1-.9-.1-1.1-.4-.3-.9-.3-1.4-.4-.1.6-.2 1.3-.3 2zM133.4 32.3c-.6 0-1.1.1-1.7.1v1.7c.7 0 1.3.1 2 .1v.2h-2.5v-4.3h2.3v.2c-.6 0-1.2.1-1.8.1v1.4c.6 0 1.2.1 1.8.1-.1.2-.1.3-.1.4zM44.9 34.7V33c0-.4-.1-.6-.6-.6-1.8-.1-1.8-.1-1.9 1.7 0 .2-.1.3-.1.5-.4-.5-.5-3.8.1-4.5 0 .4.1.8.1 1.2 0 .5.2.8.7.7.5 0 1.2.1 1.6-.1.3-.2.1-1 .2-1.5 0-.1.1-.2.2-.3.4.5.3 4-.3 4.6zM53.1 34.4v-4.3h2.4v.2c-.3 0-.5.1-.8.1-.5.1-1.2-.3-1.2.8s.7.7 1.2.8c.2 0 .4.1.7.1v.3h-1.3c-.7 0-.6.5-.6.8 0 .4-.2 1 .6.9h1.6v.3h-2.6zM138.2 32.3h-1.3c-.7 0-.6.4-.6.8s-.2 1 .5.9h1.6v.3h-2.6v-4.1c0-.1.2-.3.3-.3h2.1v.2c-.3 0-.5.1-.8.1-1.3 0-1.3 0-1.1 1.5.6 0 1.2.1 1.8.1.1.3.1.4.1.5zM81.4 17.5c0 .2.1.2.1.3.1 1.9-.1 2-2.1 1.7v-1-1h2zM101.2 17.5v2c-.1 0-.2.1-.3.1-1.8.1-2.1-.1-1.7-2h.7c.4-.1.8-.1 1.3-.1zM61.1 34.1c-.6.7-2.1.6-2.8 0-.8-.7-1-2.3-.3-3.2.7-.9 2.1-1.2 3.2-.5-1.9-.2-3.3.1-3 2.2.2 1.8 1.6 1.6 2.9 1.5zM107.9 34.3c.3-.1.5-.2.7-.2.6-.3.8-.8.5-1.4-.4-.9-.9-1.7-1.3-2.6.5-.1.5-.1 1.1 1 .2.5.5 1 .8 1.5.6-.9.6-2 1.5-2.6 0 .2 0 .3-.1.5-.5 1.1-.9 2.2-1.5 3.2-.5.8-.9.9-1.7.6zM118.4 34.5c1.4-1.1 1.4-1.1.5-2.8-.3-.5-.5-1.1-.9-1.7.9-.1.8.7 1.1 1.1.3.4.5 1 .7 1.5.7-.8.5-2.1 1.4-2.7.1 0 .2.1.3.1-.6 1.2-1.1 2.4-1.7 3.7-.1.6-.6 1-1.4.8zM64.6 30.5c-.6-.1-1.1-.1-1.6-.2v-.2h3.4v.2c-.2 0-.4.1-.6.1h-.9v4.1h-.4c.1-1.3.1-2.7.1-4z"/>
        <path d="M147.4 15.1l-1-1c-.1.5-.2.7-.3 1h-.2c0-.6-.1-1.2.1-1.8 0-.1.8-.2 1.1-.2.3 0 .5.3.3.8-.1.3 0 .8 0 1.2z"/>
    </g>
</svg>