<?xml version="1.0" encoding="UTF-8"?>
<svg width="140px" height="54px" viewBox="0 0 140 54" version="1.1" xmlns="http://www.w3.org/2000/svg" xmlns:xlink="http://www.w3.org/1999/xlink">
    <!-- Generator: sketchtool 52.5 (67469) - http://www.bohemiancoding.com/sketch -->
    <title>23E2F697-02B3-4A32-8D9A-3F5AB5E25987</title>
    <desc>Created with sketchtool.</desc>
    <g id="Page-1" stroke="none" stroke-width="1" fill="none" fill-rule="evenodd">
        <g id="About-{1920}--new-logo" transform="translate(-595.000000, -805.000000)">
            <g id="logo_flatCo" transform="translate(595.000000, 805.000000)">
                <path d="M41.4,0 L1.8,0 C0.8064,0 0,0.8064 0,1.8 L0,52.2 C0,53.1936 0.8064,54 1.8,54 L41.4,54 C42.3936,54 43.2,53.1936 43.2,52.2 L43.2,1.8 C43.2,0.8064 42.3936,0 41.4,0 Z" id="Path" fill="#1F1F1F"></path>
                <g id="Group" transform="translate(0.000000, 4.500000)" fill="#36D9F4">
                    <path d="M35.1,0 L0,0 L0,1.8 L35.1,1.8 C35.8452,1.8 36.45,1.3968 36.45,0.9 C36.45,0.4032 35.8452,0 35.1,0 Z" id="Path"></path>
                    <path d="M29.7,24.3 C30.4452,24.3 31.05,23.8968 31.05,23.4 C31.05,22.9032 30.4452,22.5 29.7,22.5 L0,22.5 L0,24.3 L29.7,24.3 Z" id="Path"></path>
                    <path d="M18,46.8 C18.7452,46.8 19.35,46.3968 19.35,45.9 C19.35,45.4032 18.7452,45 18,45 L0,45 L0,46.8 L18,46.8 Z" id="Path"></path>
                    <path d="M14.4,42.3 C15.1452,42.3 15.75,41.8968 15.75,41.4 C15.75,40.9032 15.1452,40.5 14.4,40.5 L0,40.5 L0,42.3 L14.4,42.3 Z" id="Path"></path>
                    <path d="M14.4,37.8 C15.1452,37.8 15.75,37.3968 15.75,36.9 C15.75,36.4032 15.1452,36 14.4,36 L0,36 L0,37.8 L14.4,37.8 Z" id="Path"></path>
                    <path d="M14.4,33.3 C15.1452,33.3 15.75,32.8968 15.75,32.4 C15.75,31.9032 15.1452,31.5 14.4,31.5 L0,31.5 L0,33.3 L14.4,33.3 Z" id="Path"></path>
                    <path d="M14.4,28.8 C15.1452,28.8 15.75,28.3968 15.75,27.9 C15.75,27.4032 15.1452,27 14.4,27 L0,27 L0,28.8 L14.4,28.8 Z" id="Path"></path>
                    <path d="M14.4,19.8 C15.1452,19.8 15.75,19.3968 15.75,18.9 C15.75,18.4032 15.1452,18 14.4,18 L0,18 L0,19.8 L14.4,19.8 Z" id="Path"></path>
                    <path d="M14.4,15.3 C15.1452,15.3 15.75,14.8968 15.75,14.4 C15.75,13.9032 15.1452,13.5 14.4,13.5 L0,13.5 L0,15.3 L14.4,15.3 Z" id="Path"></path>
                    <path d="M14.4,10.8 C15.1452,10.8 15.75,10.3968 15.75,9.9 C15.75,9.4032 15.1452,9 14.4,9 L0,9 L0,10.8 L14.4,10.8 Z" id="Path"></path>
                    <path d="M14.4,6.3 C15.1452,6.3 15.75,5.8968 15.75,5.4 C15.75,4.9032 15.1452,4.5 14.4,4.5 L0,4.5 L0,6.3 L14.4,6.3 Z" id="Path"></path>
                </g>
                <g id="Group-2" transform="translate(51.300000, 16.200000)" fill="#1F1F1F">
                    <path d="M85.4793,4.6917 C85.482,4.3101 85.6116,3.9933 85.869,3.7395 C86.1219,3.4785 86.4288,3.3453 86.805,3.3426 C87.1803,3.3462 87.4917,3.4785 87.7392,3.7395 C87.9966,3.9924 88.1271,4.3101 88.1289,4.6917 C88.1271,5.0733 87.9975,5.3892 87.7392,5.6448 C87.4917,5.9049 87.1803,6.0372 86.805,6.0408 C86.4288,6.0363 86.1219,5.9049 85.869,5.6448 C85.6116,5.3892 85.4811,5.0733 85.4793,4.6917 Z M87.8994,4.6917 C87.8976,4.3731 87.7914,4.1094 87.5835,3.8979 C87.3756,3.6864 87.1146,3.5793 86.8032,3.5721 C86.4918,3.5793 86.2362,3.6873 86.031,3.8979 C85.8195,4.1085 85.7097,4.3731 85.7088,4.6917 C85.7097,5.0085 85.8195,5.2704 86.031,5.4801 C86.2371,5.6952 86.4927,5.8059 86.8032,5.8095 C87.1155,5.8059 87.3765,5.6952 87.5835,5.4801 C87.7914,5.2695 87.8976,5.0076 87.8994,4.6917 Z M86.7717,4.7916 L86.526,4.7916 L86.526,5.472 L86.3001,5.472 L86.3001,3.9141 L86.8761,3.9141 C87.2352,3.9114 87.4161,4.059 87.4161,4.356 C87.4107,4.4946 87.372,4.5963 87.2973,4.6593 C87.2289,4.7268 87.1344,4.7682 87.0201,4.7871 L87.4539,5.4729 L87.1695,5.4729 L86.7717,4.7916 Z M86.8383,4.5999 C87.0687,4.6008 87.1875,4.5171 87.183,4.3533 C87.1875,4.185 87.0687,4.1022 86.8383,4.1049 L86.5251,4.1049 L86.5251,4.6008 L86.8383,4.6008 L86.8383,4.5999 Z" id="Shape" fill-rule="nonzero"></path>
                    <path d="M62.4753,14.9265 L62.4627,14.9112 L60.2604,12.699 C61.1343,11.7504 62.4033,10.332 62.4753,10.2474 C62.5977,10.1232 62.7111,9.8676 62.7003,9.6813 C62.703,9.4068 62.5734,9.1485 62.3799,8.9874 C62.1882,8.8236 61.9443,8.7399 61.6932,8.7399 C61.3836,8.7327 61.1001,8.8884 60.9309,9.0756 C60.8904,9.1197 60.7986,9.2205 60.6276,9.4077 C60.2271,9.8532 59.4846,10.6767 58.8798,11.3202 L53.1468,5.5926 C52.4961,4.9527 52.2477,4.3929 52.2477,3.87 C52.2477,3.3912 52.4592,2.9304 52.8228,2.5902 C53.1837,2.2491 53.676,2.0331 54.2214,2.0331 C54.7668,2.0331 55.2708,2.2491 55.638,2.592 C56.0025,2.9349 56.2212,3.393 56.2212,3.87 C56.223,4.1553 56.3652,4.3848 56.5407,4.5378 C56.7207,4.6917 56.9574,4.7889 57.2274,4.7925 C57.4911,4.7907 57.7359,4.6989 57.9231,4.5441 C58.1103,4.3893 58.2507,4.1553 58.2507,3.87 C58.2543,2.8539 57.7917,1.9332 57.0591,1.2816 C56.3265,0.6309 55.3221,0.2349 54.2205,0.2349 C53.1306,0.2349 52.1343,0.6309 51.4035,1.2852 C50.6781,1.9332 50.211,2.8539 50.211,3.87 C50.2155,4.9275 50.7366,5.9382 51.6312,6.8418 L52.2747,7.4763 C51.4251,7.9614 50.3811,8.6625 49.653,9.6804 C49.1229,10.4184 48.8466,11.2779 48.8466,12.1446 C48.8466,13.3389 49.3875,14.4261 50.2524,15.201 C51.1137,15.9777 52.3017,16.4547 53.6103,16.4547 L53.6247,16.4547 C56.0403,16.4547 57.6387,15.2721 58.8816,14.0904 L60.9534,16.164 L60.9669,16.1748 C61.1271,16.3143 61.38,16.4565 61.6932,16.4556 C61.9776,16.4556 62.2287,16.3485 62.4069,16.1856 C62.586,16.0245 62.7219,15.7959 62.7246,15.5124 C62.7174,15.2253 62.5806,15.0507 62.4753,14.9265 M53.6517,8.8515 L57.5154,12.7062 C56.9322,13.2633 56.3949,13.7214 55.8441,14.0454 C55.1772,14.436 54.5013,14.6502 53.6121,14.6547 C52.8525,14.6547 52.1703,14.364 51.6735,13.9014 C51.1821,13.437 50.8815,12.8133 50.8815,12.1446 C50.8761,11.6649 51.0525,11.0718 51.3441,10.674 C51.9309,9.8613 52.8939,9.2529 53.6517,8.8515" id="Shape" fill-rule="nonzero"></path>
                    <path d="M83.6397,5.7564 C82.7379,4.9806 81.504,4.59 80.1315,4.5909 C78.7356,4.5891 77.5161,4.9842 76.6197,5.7564 C75.7197,6.525 75.2382,7.6221 75.2409,8.8605 L75.2409,12.186 C75.2382,13.4253 75.7197,14.5224 76.6197,15.2901 C77.5134,16.0614 78.7311,16.4538 80.1189,16.4538 L80.1324,16.4538 C81.5049,16.4538 82.7388,16.0668 83.6406,15.2901 C84.5469,14.5161 85.0014,13.4154 84.9933,12.186 L84.9933,8.8605 C84.9996,7.6302 84.5451,6.5304 83.6397,5.7564 M80.1306,14.6547 C79.1766,14.6547 78.4665,14.4036 78.0048,14.0049 C77.5413,13.5999 77.2803,13.0374 77.2758,12.2499 L77.2758,8.7975 C77.2803,8.0082 77.5413,7.4448 78.0048,7.0443 C78.4674,6.6429 79.1775,6.3918 80.1306,6.3909 C81.0909,6.3918 81.7866,6.651 82.2438,7.0533 C82.6956,7.4601 82.953,8.0271 82.9566,8.7975 L82.9566,12.2499 C82.953,13.0374 82.6902,13.6017 82.2312,14.0049 C81.7686,14.4054 81.0675,14.6547 80.1306,14.6547" id="Shape" fill-rule="nonzero"></path>
                    <path d="M36.7209,5.7069 C35.8677,4.9743 34.7013,4.6044 33.3801,4.6062 C32.2245,4.6062 31.1283,4.8555 30.1365,5.2515 C29.7594,5.3883 29.5164,5.7267 29.5191,6.0957 C29.5155,6.3603 29.6487,6.6033 29.8341,6.7599 C30.0285,6.9183 30.2742,6.9975 30.5226,6.9975 C30.7161,6.9948 30.8421,6.9381 30.8727,6.9318 L30.8898,6.9273 L30.9024,6.9237 C31.7367,6.6348 32.5557,6.4053 33.3819,6.4053 C34.2594,6.4089 34.8993,6.6483 35.3223,7.0254 C35.7462,7.4052 35.9856,7.9389 35.9901,8.6634 L35.9901,9.6093 L31.7682,9.6093 C31.518,9.6093 31.2813,9.6939 31.0914,9.8496 C30.9033,10.0017 30.7611,10.251 30.7647,10.5309 C30.7701,11.0628 31.2336,11.4498 31.7682,11.4507 L35.9901,11.4507 L35.9901,12.411 C35.9856,13.1256 35.7462,13.6602 35.3196,14.0436 C34.8948,14.4243 34.2549,14.6655 33.3819,14.6673 C32.5422,14.6673 31.7124,14.4765 30.9393,14.1471 C30.8322,14.1003 30.7044,14.0607 30.5235,14.058 C30.2742,14.0607 30.0528,14.1453 29.8629,14.2929 C29.6811,14.436 29.5209,14.6817 29.5209,14.9787 C29.5173,15.3666 29.7963,15.6708 30.0825,15.8013 L30.0897,15.8049 L30.1014,15.8085 C31.1112,16.2684 32.2425,16.4682 33.3828,16.4682 C34.704,16.4709 35.8704,16.1019 36.7236,15.3675 C37.5795,14.6322 38.0304,13.5675 38.0277,12.4101 L38.0277,8.6625 C38.0277,7.488 37.575,6.4377 36.7209,5.7069" id="Path"></path>
                    <path d="M48.3129,4.9689 C48.1158,4.8114 47.8701,4.7466 47.6379,4.7466 L39.5829,4.7466 C39.3381,4.7466 39.1068,4.8348 38.9205,4.9869 C38.7369,5.1363 38.5983,5.3811 38.6019,5.6529 C38.6073,6.1731 39.0609,6.5511 39.5838,6.552 L42.453,6.552 L42.4521,15.5322 C42.4521,15.8094 42.588,16.056 42.7752,16.218 C42.9651,16.3818 43.2153,16.4727 43.4808,16.4745 C43.7499,16.4727 43.992,16.3737 44.172,16.2126 C44.3565,16.0515 44.4879,15.8094 44.4879,15.5322 L44.4879,6.552 L47.6388,6.552 C47.871,6.552 48.1167,6.4854 48.3138,6.3243 C48.5181,6.1704 48.6486,5.9049 48.6441,5.6475 C48.6477,5.3892 48.5163,5.1228 48.3129,4.9689" id="Path"></path>
                    <path d="M73.8639,14.8446 L71.649,11.3958 L71.6247,11.3589 C71.4294,11.0871 71.2512,10.8378 71.0496,10.6101 C71.0505,10.6083 71.0514,10.6065 71.0532,10.6056 L73.4337,6.2271 C73.7019,5.7357 73.5147,5.1246 73.017,4.8609 C72.5202,4.5981 71.9001,4.7817 71.6337,5.2731 L69.2631,9.6327 C69.0687,9.6057 68.8716,9.594 68.6754,9.5958 L66.8205,9.5958 L66.8205,5.6862 C66.8205,5.4081 66.6855,5.1615 66.4947,4.9986 C66.303,4.8339 66.0546,4.7439 65.7927,4.7439 C65.5191,4.7439 65.2788,4.8438 65.0979,5.0049 C64.9161,5.166 64.782,5.4081 64.782,5.6862 L64.782,15.5304 C64.782,15.8094 64.9152,16.0497 65.0979,16.2108 C65.2788,16.3737 65.52,16.4727 65.7927,16.4745 C66.0546,16.4745 66.303,16.3809 66.4947,16.2189 C66.6855,16.056 66.8205,15.8094 66.8205,15.5304 L66.8205,11.6118 L68.6754,11.6118 C69.1227,11.6199 69.1938,11.6676 69.2937,11.7279 C69.3963,11.7909 69.6042,12.0195 69.9273,12.4821 L72.1386,15.9246 C72.333,16.227 72.6642,16.3926 73.0017,16.3926 C73.1898,16.3926 73.3788,16.3422 73.548,16.236 C74.025,15.9381 74.1663,15.3153 73.8639,14.8446" id="Path"></path>
                    <path d="M27.1107,5.0598 C26.9226,4.8978 26.6778,4.8042 26.4186,4.8042 L26.2314,4.8042 L20.9385,4.8042 C20.4165,4.8042 20.0133,5.184 19.9683,5.6952 C19.8126,7.3152 19.584,10.125 19.233,12.285 C18.9945,13.752 18.9144,13.9608 18.7218,14.1795 C18.6066,14.31 18.4698,14.4135 18.1125,14.5188 C17.5761,14.6592 17.2593,15.2037 17.4015,15.7338 C17.5221,16.1766 17.928,16.4682 18.3726,16.4682 C18.459,16.4682 18.5454,16.4574 18.6327,16.434 C19.1061,16.3188 19.8234,16.0461 20.322,15.3792 C20.8611,14.7159 21.1077,13.8384 21.2688,12.5217 C21.4965,10.6407 21.7377,8.1405 21.8592,6.7869 L25.4259,6.7869 L25.4259,15.5385 C25.4259,15.813 25.5573,16.0497 25.7364,16.209 C25.9137,16.3692 26.1513,16.4655 26.4195,16.4673 C26.6778,16.4673 26.9235,16.3764 27.1116,16.2153 C27.2997,16.056 27.432,15.813 27.432,15.5385 L27.432,5.7357 C27.4311,5.4621 27.2988,5.22 27.1107,5.0598" id="Path"></path>
                    <path d="M16.0389,3.2571 C15.1857,2.5236 14.0184,2.1546 12.699,2.1564 C12.5505,2.1564 12.4047,2.1618 12.2589,2.1708 C11.5065,2.2113 10.7811,2.3553 10.1007,2.5722 L10.1007,2.0988 C10.1007,1.8207 9.9684,1.5741 9.7767,1.4121 C9.585,1.2483 9.3384,1.1565 9.0711,1.1565 C8.8029,1.1565 8.5563,1.2492 8.3664,1.4121 C8.1774,1.5741 8.0433,1.8207 8.0433,2.0988 L8.0433,2.5713 C7.2297,2.313 6.3585,2.1564 5.4477,2.1564 C4.1265,2.1546 2.961,2.5227 2.1078,3.2571 C1.2528,3.9888 0.8001,5.0382 0.8019,6.2145 L0.8019,8.7147 C0.8001,9.8721 1.251,10.9368 2.1078,11.6712 C2.961,12.4065 4.1265,12.7755 5.4477,12.7728 C6.336,12.7728 7.218,12.6486 8.0433,12.3777 L8.0433,15.5898 C8.0433,15.8688 8.1756,16.1154 8.3664,16.2765 C8.5581,16.4412 8.8056,16.533 9.072,16.533 C9.3393,16.533 9.5868,16.4403 9.7767,16.2765 C9.9657,16.1154 10.1007,15.8688 10.1007,15.5898 L10.1007,12.3768 C10.4094,12.4794 10.7271,12.5613 11.0511,12.6225 C11.0682,12.6252 11.0844,12.6279 11.1015,12.6306 C11.6244,12.726 12.1608,12.7728 12.6999,12.7728 C14.0193,12.7755 15.1866,12.4074 16.0398,11.6712 C16.8957,10.9368 17.3466,9.8721 17.3439,8.7147 L17.3439,6.2145 C17.3457,5.0391 16.8939,3.9897 16.0389,3.2571 Z M7.8894,10.4526 C7.1172,10.7811 6.2865,10.9728 5.4468,10.9728 C4.5738,10.9701 3.9339,10.7289 3.5091,10.3482 C3.0825,9.9648 2.8431,9.4293 2.8386,8.7156 L2.8386,6.2154 C2.8431,5.49 3.0825,4.9581 3.5064,4.5765 C3.9294,4.1994 4.5711,3.96 5.4468,3.9573 C6.273,3.9573 7.0902,4.1859 7.9263,4.4739 L7.9398,4.4784 L7.9551,4.4829 C7.9686,4.4865 8.001,4.4973 8.0433,4.509 L8.0433,10.3995 C7.9857,10.4139 7.9344,10.4319 7.8894,10.4526 Z M15.3081,8.7156 C15.3027,9.4302 15.0633,9.9657 14.6376,10.3482 C14.211,10.7298 13.572,10.9701 12.6999,10.9728 C11.8593,10.9728 11.0295,10.7811 10.2564,10.4526 C10.2105,10.4319 10.1583,10.4139 10.1016,10.3977 C10.1007,10.3977 10.1007,10.3977 10.1007,10.3977 L10.1007,4.5099 C10.1007,4.5099 10.1007,4.509 10.1016,4.509 C10.1061,4.5072 10.1097,4.5063 10.1151,4.5045 C10.1511,4.4937 10.1799,4.4847 10.1916,4.482 L10.2069,4.4775 L10.2204,4.473 C11.0565,4.185 11.8737,3.9564 12.7008,3.9564 C13.5765,3.9591 14.2173,4.1985 14.6412,4.5756 C15.0642,4.9572 15.3036,5.49 15.309,6.2145 L15.309,8.7156 L15.3081,8.7156 Z" id="Shape" fill-rule="nonzero"></path>
                </g>
            </g>
        </g>
    </g>
</svg>