<?xml version="1.0" encoding="UTF-8"?>
<svg width="130px" height="41px" viewBox="0 0 130 41" version="1.1" xmlns="http://www.w3.org/2000/svg" xmlns:xlink="http://www.w3.org/1999/xlink">
    <!-- Generator: sketchtool 52.5 (67469) - http://www.bohemiancoding.com/sketch -->
    <title>6F5ABCFB-1792-487B-9554-C8B1BA0CF45F</title>
    <desc>Created with sketchtool.</desc>
    <defs>
        <polygon id="path-1" points="0 0.00578016698 40.4400109 0.00578016698 40.4400109 40.6646481 0 40.6646481"></polygon>
        <polygon id="path-3" points="0.106593368 5.08308895e-05 40.5376344 5.08308895e-05 40.5376344 40.6647116 0.106593368 40.6647116"></polygon>
    </defs>
    <g id="Page-1" stroke="none" stroke-width="1" fill="none" fill-rule="evenodd">
        <g id="About-{1920}--new-logo" transform="translate(-600.000000, -164.000000)">
            <g id="lsr" transform="translate(600.000000, 164.000000)">
                <path d="M66.9653509,19.8878397 C64.7930929,17.0665982 60.2523695,15.9656012 56.5903851,17.3592571 C52.7647253,18.8153079 50.3342463,22.5634506 50.5925943,26.6090811 C50.8518319,30.6707234 53.8316657,34.1293842 57.8488309,35.0552688 C61.7115973,35.9455718 65.5030733,34.1475562 66.8375112,32.23174 C65.843259,31.1890714 64.8685767,30.1671163 63.8951652,29.146305 C61.3922522,31.4443695 58.8645591,31.6279961 56.9023597,29.6631281 C54.957697,27.7159238 54.906739,24.5204399 56.7996813,22.4776735 C57.6427116,21.5681818 58.6999941,21.0573314 59.9360743,21.0039589 C61.6029462,20.9320332 62.9000235,21.6937341 63.9078729,22.9421408 C64.9408837,21.9101466 65.9389482,20.9132258 66.9653509,19.8878397 M75.2296911,40.6647116 L44.8582346,40.6647116 C44.8563284,31.4328055 44.8503558,22.2008993 44.8689091,12.9691202 C44.8695445,12.6516813 45.0461818,12.2768035 45.2568759,12.0264614 C48.5010303,8.17233627 51.7688211,4.33790811 55.0162796,0.486451613 C55.3002972,0.149569892 55.5796129,0.00241446725 56.0293392,0.00292277615 C65.5364946,0.0163929619 75.04365,0.0132160313 84.5509326,0.0132160313 L85.223044,0.0132160313 C85.2343539,0.265337243 85.2466804,0.412238514 85.2466804,0.559012708 C85.247697,9.621652 85.2508739,18.6841642 85.2334643,27.7466764 C85.2328289,28.050391 85.0910108,28.4078592 84.8997595,28.6486706 C83.3062111,30.6538221 81.681783,32.6341935 80.074129,34.6281623 C78.454784,36.6367449 76.8440802,38.6521896 75.2296911,40.6647116" id="Fill-1" fill="#1F1F1F"></path>
                <g id="Group-5">
                    <mask id="mask-2" fill="white">
                        <use xlink:href="#path-1"></use>
                    </mask>
                    <g id="Clip-4"></g>
                    <path d="M17.5468993,21.2323803 L17.5468993,34.4002493 L21.8250811,34.4002493 L21.8250811,17.2208065 L9.13692864,17.2208065 C9.13692864,17.7141202 9.15827761,18.1572385 9.13337048,18.5978152 C8.97782796,21.3625073 8.8844262,24.1334262 8.62353666,26.8883333 C8.45706549,28.6474633 7.60806256,30.0611975 5.82072141,30.7164076 C5.70991007,30.7571994 5.56618573,30.9122336 5.5646608,31.0159286 C5.54674291,32.2371408 5.55322385,33.4587341 5.55322385,34.7330645 C5.85744673,34.7330645 6.08555034,34.7483138 6.31111241,34.7307771 C9.30632258,34.496828 11.698043,32.5192522 12.2786588,29.5506012 C12.6874663,27.4614516 12.8479648,25.3221065 13.0806432,23.2008065 C13.1509169,22.5600831 13.0914448,21.9052542 13.0914448,21.2323803 L17.5468993,21.2323803 Z M30.3714057,40.6646481 L-5.08308895e-05,40.6646481 C0.00439687195,40.3895259 0.0126568915,40.1144037 0.0126568915,39.8394086 C0.0132922776,30.924433 0.00859042033,22.0095846 0.0299393939,13.0947361 C0.0308289345,12.7359971 0.191835777,12.3055865 0.423116325,12.0302102 C3.67680156,8.15600684 6.9600958,4.30658358 10.2206432,0.437971652 C10.4972903,0.109604106 10.7823245,0.00527370479 11.1946901,0.00578201369 C20.7024809,0.0154398827 30.2102717,0.0131524927 39.7180626,0.0131524927 L40.41165,0.0131524927 L40.41165,0.882233627 C40.41165,9.3948827 40.3848368,17.9075318 40.4398612,26.4197996 C40.4483754,27.7316178 40.0940841,28.7171017 39.256391,29.7206305 C36.2458045,33.3277175 33.325697,37.0105425 30.3714057,40.6646481 Z" id="Fill-3" fill="#1F1F1F" mask="url(#mask-2)"></path>
                </g>
                <g id="Group-8" transform="translate(89.462366, 0.000000)">
                    <mask id="mask-4" fill="white">
                        <use xlink:href="#path-3"></use>
                    </mask>
                    <g id="Clip-7"></g>
                    <path d="M11.9549423,30.6182913 C13.0408172,30.6182913 14.0367214,30.5617419 15.0242385,30.6285846 C18.3745024,30.8555445 22.4427527,28.2438534 22.1945709,23.4469423 C22.0700352,21.0394643 21.1187351,19.2807155 19.0569071,18.0952121 C17.9494291,17.4584282 16.7402893,17.1782229 15.4719316,17.1722502 C12.9959589,17.1609404 10.5197322,17.1885161 8.04426784,17.1548407 C7.43569501,17.1464536 7.26286999,17.3144497 7.26566569,17.9275973 C7.28866667,23.3238045 7.27862757,28.7201388 7.28027957,34.116346 C7.28040665,34.3430518 7.299087,34.5696305 7.30938025,34.7998944 L11.9549423,34.7998944 L11.9549423,30.6182913 Z M30.4985591,40.6647625 L0.127102639,40.6647625 C0.120367546,40.5805103 0.107659824,40.496131 0.107659824,40.4118788 C0.106516129,31.2463069 0.103085044,22.0807351 0.120113392,12.9152903 C0.120621701,12.6339413 0.270826979,12.2999824 0.456740958,12.0793763 C3.72897947,8.19564223 7.02104203,4.32855523 10.2963304,0.447235582 C10.5668778,0.126619746 10.8445415,0.00208406647 11.2640235,0.00399022483 C14.7990577,0.0201290323 18.3339648,0.0146647116 21.868999,0.0128856305 C28.0918436,0.00958162268 34.3146882,0.0043714565 40.5376598,5.08308895e-05 L40.5376598,28.3382717 C40.3747468,28.490002 40.1909932,28.625085 40.0518436,28.7962581 C38.0431339,31.2668935 36.035695,33.7386725 34.0377869,36.2179492 C32.8492336,37.6930616 31.6777087,39.1820254 30.4985591,40.6647625 Z" id="Fill-6" fill="#1F1F1F" mask="url(#mask-4)"></path>
                </g>
                <path d="M101.468431,21.2264203 C102.526222,21.2264203 103.545508,21.1574174 104.551833,21.2425591 C106.063035,21.370653 107.18284,22.6514643 107.117776,24.0446119 C107.055635,25.3751105 105.730601,26.5448563 104.245323,26.5648074 C103.33672,26.5770068 102.427991,26.5670948 101.468431,26.5670948 L101.468431,21.2264203 Z" id="Fill-9" fill="#1F1F1F"></path>
            </g>
        </g>
    </g>
</svg>