<svg xmlns="http://www.w3.org/2000/svg" width="85" height="31" viewBox="0 0 85 31">
    <g fill="#1F1F1F" fill-rule="nonzero">
        <path d="M84.143 0h-8.099v3.127h4.944v4.9h3.156V0zM80.988 11.148V27.19h-24.28v3.127h27.435V11.148zM.052 27.19h27.436v3.128H.052zM72.895 0H.052v24.062h3.155V3.126h69.688zM29.892 27.251h.874v1.268l1.086-1.268h1.035l-1.193 1.344 1.234 1.78h-1.05l-.792-1.16-.32.353v.808h-.874zM33.15 28.813c0-.897.73-1.624 1.703-1.624.972 0 1.693.718 1.693 1.624 0 .897-.73 1.625-1.702 1.625-.973 0-1.694-.719-1.694-1.625zm2.504 0c0-.45-.329-.843-.81-.843-.477 0-.797.383-.797.843 0 .451.329.844.806.844.482 0 .801-.384.801-.844zM37.263 27.251h.874v1.17h1.121v-1.17h.874v3.125h-.874v-1.188h-1.12v1.188h-.875zM43.34 30.376h-2.342V27.25h.874v2.366h1.077V27.25h.873v2.366h.357l-.1 1.383h-.738v-.624zM44.817 27.251h2.536v.736h-1.67v.473h1.512v.684h-1.513v.495h1.694v.736h-2.559v-3.124zM48.154 27.251h1.35c.798 0 1.312.407 1.312 1.107 0 .736-.572 1.125-1.356 1.125h-.432v.892h-.874v-3.124zm1.288 1.554c.31 0 .5-.16.5-.416 0-.267-.19-.41-.505-.41h-.41v.826h.415zM51.434 27.251h.874v1.17h1.121v-1.17h.874v3.125h-.874v-1.188h-1.121v1.188h-.874z"/>
        <path d="M8.152 8.1h5.82c3.398 0 5.453 1.996 5.453 4.92 0 3.267-2.563 4.962-5.759 4.962h-2.38v4.235H8.151V8.1zm5.616 7.12c1.567 0 2.483-.929 2.483-2.179 0-1.391-.977-2.137-2.544-2.137h-2.422v4.315h2.483zM30.965 8.1h3.399L28.89 19.01c-1.242 2.46-2.666 3.429-4.66 3.429-1.222 0-2.178-.323-3.073-.827l1.22-2.278c.57.342 1.14.463 1.69.463.57 0 1.22-.262 1.79-1.13L20.16 8.1h3.5l3.867 7.462 3.44-7.462zM34.252 15.159c0-4.014 3.053-7.3 7.429-7.3 2.686 0 4.192 1.008 5.515 2.298l-1.872 2.138c-1.1-.988-2.036-1.573-3.664-1.573-2.4 0-4.131 1.977-4.131 4.437 0 2.42 1.69 4.437 4.131 4.437 1.628 0 2.626-.646 3.745-1.654l1.994 2.117c-1.464 1.553-3.093 2.4-5.84 2.4-4.193 0-7.307-3.206-7.307-7.3zM62.032 22.217h-3.094V12.96l-6.226 9.257H49.76V8.1h3.093v9.257L59.122 8.1h2.91v14.117zM72.91 16.953c-.957.464-2.32 1.049-3.765 1.049-2.828 0-4.782-1.472-4.782-4.74V8.1h3.134v4.255c0 1.755.691 2.743 2.3 2.743 1.261 0 2.462-.403 3.113-.907V8.1h3.134v14.117H72.91v-5.264z"/>
    </g>
</svg>